 20070171 , Villanueva , Luzviminda ,  Project Manager ,,GREAT - WEE FUND ,,,2018-01-01,18 ,1,102910,PROJECT
 20120301 , Magsumbol , Maria Crisenda , Monitoring and Evaluation Officer ,,GREAT - WEE FUND ,,,2018-01-01,22,1,58717,PROJECT
 20180450 , Lopez , Carmen Roceli ,  Planning Officer IV ,,GREAT - WEE FUND ,,,2018-01-01,22,1,58717,PROJECT
 20120271 , Climaco , Jojie Ann ,  Planning Officer III ,,GREAT - WEE FUND ,,,2018-01-01,18,1,38085,PROJECT
 20180462 , Valdez , Frances Loraine ,  Planning Officer III ,,GREAT - WEE FUND ,,,2018-01-01,18,1,38085,PROJECT
 19970068 , Villavicencio , Lourdita , Admin Officer V ,,GREAT - WEE FUND ,,,2018-01-01,18,1,38085,PROJECT
 20130309 , Soldevilla , Analyn , Admin Asst. II ,,GREAT - WEE FUND ,,,2018-01-01,8,1,16282,PROJECT
 20130305 , Mayo , Ricardo ,  Driver ,,GREAT - WEE FUND ,,,2018-01-01,4,1,12674,PROJECT