{
   "Module": "Module.AMS.Availment.Leave",
   "Module.AMS.Availment.Leave": {
      "jsonFile":"AvailmentLeave",
      "Module Name": "Availment of Leave",
      "Description": "",
      "Author": "Erwin Mendoza",
      "System": "Attendance Management System",
      "Module Save Type": "Multiple",
      "Module Type": "List",
      "dbTable": "employeesleave",
      "dbField": [
         [
            "ApplicationDateFrom",
            "date_ApplicationDateFrom",
            "",
            "date",
            "Application Date From"
         ],
         [
            "ApplicationDateTo",
            "date_ApplicationDateTo",
            "",
            "date",
            "Application Date To"
         ],
         [
            "isForceLeave",
            "sint_isForceLeave",
            "0",
            "int",
            "Force Leave"
         ],
         [
            "IncludeSatSun",
            "sint_IncludeSatSun",
            "0",
            "int",
            "Include Sat And Sun"
         ],
         [
            "Balance",
            "deci_Balance",
            "0",
            "deci",
            "Balance"
         ],
         [
            "SPLType",
            "char_SPLType",
            "",
            "char",
            "SPL Type"
         ],
         
         [
            "LeavesRefId",
            "sint_LeavesRefId",
            "0",
            "int",
            "Leaves"
         ],
         [
            "FiledDate",
            "date_FiledDate",
            "",
            "date",
            "Date Filed"
         ],
         [
            "Remarks",
            "char_Remarks",
            "",
            "char",
            "Remarks"
         ]
      ],
      "field.EndDate": "ApplicationDateTo",
      "field.StartDate": "ApplicationDateFrom",
      "Notes": "Fields[0] - Object Name[1] - Default Value[2] - Data Type[3] - Label[4]"
   }
   
}
         
