{
   "Module":"Module.AMS.Availment.CTO",
   "Module.AMS.Availment.CTO": {
      "jsonFile":"AvailmentCTO",
      "Module Name": "Availment of CTO",
      "Description": "",
      "Author": "Erwin Mendoza",
      "System": "Attendance Management System",
      "Module Save Type": "Multiple",
      "Module Type": "List",
      "dbTable": "employeescto",
      "dbField": [
         [
            "ApplicationDateFrom",
            "date_ApplicationDateFrom",
            "",
            "date",
            "Application Date From"
         ],
         [
            "ApplicationDateTo",
            "date_ApplicationDateTo",
            "",
            "date",
            "Application Date To"
         ],
         [
            "Hours",
            "deci_Hours",
            "0",
            "deci",
            "Hours"
         ],
         [
            "Balance",
            "deci_Balance",
            "0",
            "deci",
            "Balance"
         ],
         [
            "FiledDate",
            "date_FiledDate",
            "",
            "date",
            "Date Filed"
         ],
         [
            "Remarks",
            "char_Remarks",
            "",
            "char",
            "Remarks"
         ]
      ],
      "field.EndDate": "ApplicationDateTo",
      "field.StartDate": "ApplicationDateFrom",
      "Notes": "Fields[0] - Object Name[1] - Default Value[2] - Data Type[3] - Label[4]"
   }

}

