{
   "TabName": {
   	"leavepolicygroup": {
      	"dbTable":"leavepolicygroup",
      	"dbField": [
      		["Code","char_Code","","char"],
      		["Name","char_Name","","char"],
      		["Description","char_Description","","char"],
      		["Remarks","char_Remarks","","char"]
      	],
      	"TabCount":"1"
      },
      "leavepolicy": {
        "dbTable":"leavepolicy",
        "dbField": [
	      	["LeavePolicyGroupRefId","sint_LeavePolicyGroupRefId","0","int"],
				["Accumulating","sint_Accumulating","0","int"],
				["LeavesRefId","sint_LeavesRefId","0","int"],
				["OffsetLate","sint_OffsetLate","0","int"],
				["OffsetUT","sint_OffsetUT","0","int"],
				["OffsetIfNoFile","sint_OffsetIfNoFile","0","int"],
				["ForceLeaveApplied","sint_ForceLeaveApplied","0","int"],
				["AffectedByAbs","sint_AffectedByAbs","0","int"],
				["Value","deci_Value","0","int"],
				["MaxForceLeave","char_MaxForceLeave","","char"]
			],
			"TabCount":"2"
      },
      "overtimepolicygroup": {
      	"dbTable":"overtimepolicygroup",
      	"dbField": [
      		["Code","char_Code","","char"],
      		["Name","char_Name","","char"],
      		["Description","char_Description","","char"],
      		["Remarks","char_Remarks","","char"]
      	],
      	"TabCount":"3"
      },
      "overtimepolicy": {
        	"dbTable":"overtimepolicy",
        	"dbField": [
	      	["OvertimePolicyGroupRefId","sint_OvertimePolicyGroupRefId","0","int"],
	      	["WithPay","sint_WithPay","0","int"],
	      	["ForfeitedIfLate","sint_ForfeitedIfLate","0","int"],
	      	["ForfeitedIfUT","sint_ForfeitedIfUT","0","int"],
	      	["ForfeitedIfLeave","sint_ForfeitedIfLeave","0","int"],
	      	["ForfeitedIfAbsPrevDay","sint_ForfeitedIfAbsPrevDay","0","int"],
	      	["PrevDay","sint_PrevDay","0","int"],
	      	["MaxOTWorkingDays","sint_MaxOTWorkingDays","0","int"],
	      	["MaxOTSaturday","sint_MaxOTSaturday","0","int"],
	      	["MaxOTHolidays","sint_MaxOTHolidays","0","int"],
	      	["MaxOTMonth","sint_MaxOTMonth","0","int"],
	      	["MaxUnusedCOCYear","sint_MaxUnusedCOCYear","0","int"],
	      	["ValidYears","sint_ValidYears","0","int"],
	      	["COCRatesWorkingDays","sint_COCRatesWorkingDays","0","int"],
	      	["COCRatesSaturday","sint_COCRatesSaturday","0","int"],
	      	["COCRatesHolidays","sint_COCRatesHolidays","0","int"]
			],
			"TabCount":"4"
      }
   }
}