{
	"R1": {
		"FileName":"rpt_EmpList_Age_Birthday",
		"Name":"List of Employees Age and Birthday",
		"SystemRefId":1,
		"Owner":"E2E",
		"ExtType":"php"
	},
	"R2": {
		"FileName":"rpt_EmpList_Contact_Info",
		"Name":"List of Employees Contact Information",
		"SystemRefId":1,
		"Owner":"E2E",
		"ExtType":"php"	
	},
	"R3": {
		"FileName":"rpt_Civil_Status_By_Gender",
		"Name":"Employees Civil Status by Gender",
		"SystemRefId":1,
		"Owner":"E2E",
		"ExtType":"php"	
	},
	"R4": {
		"FileName":"rpt_Age_Bracket_By_Gender",
		"Name":"Employees Age Bracket by Gender",
		"SystemRefId":1,
		"Owner":"E2E",
		"ExtType":"php"	
	},
	"R5": {
		"FileName":"rpt_EmpGovtID",
		"Name":"List of Government ID",
		"SystemRefId":1,
		"Owner":"E2E",
		"ExtType":"php"	
	},
	"R6": {
		"FileName":"rpt_Emp_Service_Length",
		"Name":"List of Employees Length of Service",
		"SystemRefId":1,
		"Owner":"E2E",
		"ExtType":"php"	
	},
	"R7": {
		"FileName":"rpt_Emp_Resigned_With_Salary",
		"Name":"List of Resigned Employees with Salary",
		"SystemRefId":1,
		"Owner":"E2E",
		"ExtType":"php"	
	},
	"R8": {
		"FileName":"rpt_Resigned_Emp",
		"Name":"List of Resigned Employees",
		"SystemRefId":1,
		"Owner":"E2E",
		"ExtType":"php"	
	},
	"R9": {
		"FileName":"rpt_Hired_Emp",
		"Name":"List of Hired Employees",
		"SystemRefId":1,
		"Owner":"E2E",
		"ExtType":"php"	
	},
	"R10": {
		"FileName":"rpt_Solo_Parent_Emp",
		"Name":"List of Solo Parent Employees",
		"SystemRefId":1,
		"Owner":"E2E",
		"ExtType":"php"	
	},
	"12": {
		"FileName":"rpt_EmpList_By_Gender_And_Age_Bracket",
		"Name":"List of Employees by Gender and Age Bracket",
		"SystemRefId":1,
		"Owner":"E2E",
		"ExtType":"php"	
	},
	"13": {
		"FileName":"rpt_EmpList_With_Disability",
		"Name":"List of Employees with Disability",
		"SystemRefId":1,
		"Owner":"E2E",
		"ExtType":"php"	
	},
	"14": {
		"FileName":"rpt_EmpList_With_Indigenous_Group",
		"Name":"List of Employees Member of Indigenous Group",
		"SystemRefId":1,
		"Owner":"E2E",
		"ExtType":"php"	
	},
	"15": {
		"FileName":"rpt_EmpList_With_Separated_From_Service",
		"Name":"List of Employees with Previously Separated from Service",
		"SystemRefId":1,
		"Owner":"E2E",
		"ExtType":"php"	
	},
	"16": {
		"FileName":"rpt_EmpList_With_Consanguity",
		"Name":"List of Employees with Consanguity",
		"SystemRefId":1,
		"Owner":"E2E",
		"ExtType":"php"	
	},
	"17": {
		"FileName":"rpt_EmpList_With_Administrative_Offense",
		"Name":"List of Employees with Administrative Offense",
		"SystemRefId":1,
		"Owner":"E2E",
		"ExtType":"php"	
	},
	"18": {
		"FileName":"rpt_EmpList_With_Violation",
		"Name":"List of Employees with Violation with the Law",
		"SystemRefId":1,
		"Owner":"E2E",
		"ExtType":"php"	
	},
	"19": {
		"FileName":"rpt_EmpList_With_College_Degrees",
		"Name":"List of Employees with College Degrees",
		"SystemRefId":1,
		"Owner":"E2E",
		"ExtType":"php"	
	},
	"22": {
		"FileName":"rptFM_GSIS_OPS_UMR_01_FORM_A",
		"Name":"FM-GSIS-OPS-UMR-01 FORM A",
		"SystemRefId":1,
		"Owner":"E2E",
		"ExtType":"php"	
	},
	"23": {
		"FileName":"rptFM_GSIS_OPS_UMR_02_FORM_B",
		"Name":"FM-GSIS-OPS-UMR-01 FORM B",
		"SystemRefId":1,
		"Owner":"E2E",
		"ExtType":"php"	
	},
	"24": {
		"FileName":"rptFM_GSIS_OPS_UMR_03_FORM_C",
		"Name":"FM-GSIS-OPS-UMR-01 FORM C",
		"SystemRefId":1,
		"Owner":"E2E",
		"ExtType":"php"	
	},
	"25": {
		"FileName":"rptFM_GSIS_OPS_UMR_04_FORM_D",
		"Name":"FM-GSIS-OPS-UMR-01 FORM D",
		"SystemRefId":1,
		"Owner":"E2E",
		"ExtType":"php"	
	},
	"26": {
		"FileName":"rptFM_GSIS_OPS_UMR_05_FORM_E",
		"Name":"FM-GSIS-OPS-UMR-01 FORM E",
		"SystemRefId":1,
		"Owner":"E2E",
		"ExtType":"php"	
	},
	"27": {
		"FileName":"Form_EmpMovement",
		"Name":"Employee Movement",
		"SystemRefId":1,
		"Owner":"E2E",
		"ExtType":"php"	
	},
	"28": {
		"FileName":"EmpChildRpt",
		"Name":"Employees Child Report",
		"SystemRefId":1,
		"Owner":"E2E",
		"ExtType":"php",
		"For":"modelEmpChildList"
	},
	"29": {
		"FileName":"EmpTrainingEducRpt",
		"Name":"Employees Training And Education Report",
		"SystemRefId":1,
		"Owner":"E2E",
		"ExtType":"php",
		"For":"modelEmpTrainingEduc"
	},
	"30": {
		"FileName":"NOSARpt",
		"Name":"Notice Of Salary Adjustment",
		"SystemRefId":1,
		"Owner":"E2E",
		"ExtType":"php",
		"For":"modelReportScrn"
	},
	"31": {
		"FileName":"NOSARpt",
		"Name":"Notice Of Salary Adjustment",
		"SystemRefId":1,
		"Owner":"E2E",
		"ExtType":"php",
		"For":"modelReportScrn"
	},
	"32": {
		"FileName":"NOSIRpt",
		"Name":"Notice Of Step Increment",
		"SystemRefId":1,
		"Owner":"E2E",
		"ExtType":"php",
		"For":"modelReportScrn"
	},
	"34": {
		"FileName":"rpt_Service_Record",
		"Name":"Employees Service Record",
		"SystemRefId":1,
		"Owner":"E2E",
		"ExtType":"php",
		"For":"modelReportScrn"
	},
	"35": {
		"FileName":"rptSummaryAttendance",
		"Name":"Summary Of Attendance",
		"SystemRefId":2,
		"Owner":"E2E",
		"ExtType":"php",
		"For":"AttendanceDateCriterias"
	},
	"36": {
		"FileName":"rptSummaryDailyAttendance",
		"Name":"Summary Of Daily Attendance",
		"SystemRefId":2,
		"Owner":"E2E",
		"ExtType":"php",
		"For":"AttendanceDateCriterias"
	},
	"37": {
		"FileName":"rptAbsentList",
		"Name":"List Of Absent",
		"SystemRefId":2,
		"Owner":"E2E",
		"ExtType":"php",
		"For":"AttendanceDateCriterias"
	},
	"38": {
		"FileName":"rptLateList",
		"Name":"List Of Late",
		"SystemRefId":2,
		"Owner":"E2E",
		"ExtType":"php",
		"For":"AttendanceDateCriterias"
	},
	"39": {
		"FileName":"rptUndertimeList",
		"Name":"List Of Undertime",
		"SystemRefId":2,
		"Owner":"E2E",
		"ExtType":"php",
		"For":"AttendanceDateCriterias"
	},
	"40": {
		"FileName":"rptHabitualTUT",
		"Name":"Habitual Tardiness And Undertime",
		"SystemRefId":2,
		"Owner":"E2E",
		"ExtType":"php",
		"For":"AttendanceDateCriterias"
	},
	"41": {
		"FileName":"rptHabitualMemo",
		"Name":"Habitual Memo",
		"SystemRefId":2,
		"Owner":"E2E",
		"ExtType":"php",
		"For":"AttendanceDateCriterias"
	},
	"42": {
		"FileName":"rptLeave_Card",
		"Name":"Leave Card",
		"SystemRefId":2,
		"Owner":"E2E",
		"ExtType":"php",
		"For":"AttendanceDateCriterias"
	},
	"43": {
		"FileName":"rptSummaryLeave",
		"Name":"Summary of Leave",
		"SystemRefId":2,
		"Owner":"E2E",
		"ExtType":"php",
		"For":"LeaveDateCriterias"
	},
	"44": {
		"FileName":"rptSummaryLeaveDetail",
		"Name":"Summary Of Leave Detail",
		"SystemRefId":2,
		"Owner":"E2E",
		"ExtType":"php",
		"For":"LeaveDateCriterias"
	},
	"45": {
		"FileName":"rptLeaveCertificate",
		"Name":"Leave Certificate",
		"SystemRefId":2,
		"Owner":"E2E",
		"ExtType":"php",
		"For":"LeaveDateCriterias"
	},
	"46": {
		"FileName":"rptLeaveWOP",
		"Name":"Leave Without Pay",
		"SystemRefId":2,
		"Owner":"E2E",
		"ExtType":"php",
		"For":"LeaveDateCriterias"
	},
	"47": {
		"FileName":"rpt_CertOfLeaveCredits",
		"Name":"Certificate Of Leave Credits",
		"SystemRefId":2,
		"Owner":"E2E",
		"ExtType":"php",
		"For":"LeaveDateCriterias"
	},
	"48": {
		"FileName":"rptOfficialBusiness",
		"Name":"Official Business",
		"SystemRefId":2,
		"Owner":"E2E",
		"ExtType":"php",
		"For":"AuthorityDateCriterias"
	},
	"49": {
		"FileName":"rptTravelOrder",
		"Name":"Travel Order",
		"SystemRefId":2,
		"Owner":"E2E",
		"ExtType":"php",
		"For":"AuthorityDateCriterias"
	},
	"50": {
		"FileName":"rptOfficeOrder",
		"Name":"Office Order",
		"SystemRefId":2,
		"Owner":"E2E",
		"ExtType":"php",
		"For":"AuthorityDateCriterias"
	},
	"51": {
		"FileName":"rptSummaryCTO",
		"Name":"Summary Of CTO",
		"SystemRefId":2,
		"Owner":"E2E",
		"ExtType":"php",
		"For":"CTODateCriterias"
	},
	"52": {
		"FileName":"rptCTODetail",
		"Name":"CTO Detail",
		"SystemRefId":2,
		"Owner":"E2E",
		"ExtType":"php",
		"For":"AuthorityDateCriterias"
	},
	"53": {
		"FileName":"rptCOCCertificate",
		"Name":"Certificate of COC",
		"SystemRefId":2,
		"Owner":"E2E",
		"ExtType":"php",
		"For":"AuthorityDateCriterias"
	},
	"54": {
		"FileName":"Form_DBM-CSC_Form1",
		"Name":"DBM CSC Form 1",
		"SystemRefId":1,
		"Owner":"E2E",
		"ExtType":"php"
	},
	"55": {
		"FileName":"Form_Office_Oath",
		"Name":"Oath Of Office",
		"SystemRefId":1,
		"Owner":"E2E",
		"ExtType":"php"
	},
	"56": {
		"FileName":"Form_Assumption_Certification",
		"Name":"Certification Of Assumption Of Duty",
		"SystemRefId":1,
		"Owner":"E2E",
		"ExtType":"php"
	},
	"57": {
		"FileName":"Form_Appointment",
		"Name":"Appointment Form",
		"SystemRefId":1,
		"Owner":"E2E",
		"ExtType":"php"
	},
	"58": {
		"FileName":"EmployeesListRpt",
		"Name":"Employees List Detailed",
		"SystemRefId":1,
		"Owner":"E2E",
		"ExtType":"php",
		"For":"modelEmpReport"
	},
	"59": {
		"FileName":"EmpChildRpt",
		"Name":"Employees Child Report Default",
		"SystemRefId":1,
		"Owner":"E2E",
		"ExtType":"php",
		"For":"modelEmpChildList"
	},
	"60": {
		"FileName":"EmpTrainingEducRpt",
		"Name":"Employees Training And Education Report Default",
		"SystemRefId":1,
		"Owner":"E2E",
		"ExtType":"php",
		"For":"modelEmpTrainingEduc"
	},
	"61": {
		"FileName":"rpt_STR",
		"Name":"Summary Time Report",
		"SystemRefId":2,
		"Owner":"E2E",
		"ExtType":"php",
		"For":"AttendanceDateCriterias"
	}

	 
}